<?xml version="1.0" encoding="UTF-8" standalone="no"?>
<!-- Created with Inkscape (http://www.inkscape.org/) -->

<svg
   xmlns:dc="http://purl.org/dc/elements/1.1/"
   xmlns:cc="http://creativecommons.org/ns#"
   xmlns:rdf="http://www.w3.org/1999/02/22-rdf-syntax-ns#"
   xmlns:svg="http://www.w3.org/2000/svg"
   xmlns="http://www.w3.org/2000/svg"
   xmlns:sodipodi="http://sodipodi.sourceforge.net/DTD/sodipodi-0.dtd"
   xmlns:inkscape="http://www.inkscape.org/namespaces/inkscape"
   width="256"
   height="256"
   id="svg2"
   version="1.1"
   inkscape:version="0.48.4 r9939"
   inkscape:export-filename="C:\Appserver\www\threejs\applications\Project Games\balls_io\modelos\bkg.png"
   inkscape:export-xdpi="360"
   inkscape:export-ydpi="360"
   sodipodi:docname="dibujo.svg">
  <defs
     id="defs4">
    <filter
       inkscape:collect="always"
       id="filter3885"
       x="-0.14033426"
       width="1.2806685"
       y="-0.59642058"
       height="2.1928412">
      <feGaussianBlur
         inkscape:collect="always"
         stdDeviation="2.1300734"
         id="feGaussianBlur3887" />
    </filter>
    <filter
       inkscape:collect="always"
       id="filter3889"
       x="-0.14033426"
       width="1.2806685"
       y="-0.59642058"
       height="2.1928412">
      <feGaussianBlur
         inkscape:collect="always"
         stdDeviation="2.1300734"
         id="feGaussianBlur3891" />
    </filter>
    <filter
       inkscape:collect="always"
       id="filter3893"
       x="-0.14033426"
       width="1.2806685"
       y="-0.59642058"
       height="2.1928412">
      <feGaussianBlur
         inkscape:collect="always"
         stdDeviation="2.1300734"
         id="feGaussianBlur3895" />
    </filter>
    <filter
       inkscape:collect="always"
       id="filter3897"
       x="-0.14033426"
       width="1.2806685"
       y="-0.59642058"
       height="2.1928412">
      <feGaussianBlur
         inkscape:collect="always"
         stdDeviation="2.1300734"
         id="feGaussianBlur3899" />
    </filter>
    <filter
       inkscape:collect="always"
       id="filter3901"
       x="-0.14033426"
       width="1.2806685"
       y="-0.59642058"
       height="2.1928412">
      <feGaussianBlur
         inkscape:collect="always"
         stdDeviation="2.1300734"
         id="feGaussianBlur3903" />
    </filter>
  </defs>
  <sodipodi:namedview
     id="base"
     pagecolor="#ffffff"
     bordercolor="#666666"
     borderopacity="1.0"
     inkscape:pageopacity="0.0"
     inkscape:pageshadow="2"
     inkscape:zoom="1.979899"
     inkscape:cx="159.00198"
     inkscape:cy="-75.520024"
     inkscape:document-units="px"
     inkscape:current-layer="layer1"
     showgrid="false"
     inkscape:window-width="1366"
     inkscape:window-height="705"
     inkscape:window-x="-8"
     inkscape:window-y="-8"
     inkscape:window-maximized="1"
     showguides="true"
     inkscape:guide-bbox="true">
    <sodipodi:guide
       orientation="1,0"
       position="50,50.357143"
       id="guide3019" />
    <sodipodi:guide
       orientation="0,1"
       position="-5.7142857,50"
       id="guide3021" />
  </sodipodi:namedview>
  <metadata
     id="metadata7">
    <rdf:RDF>
      <cc:Work
         rdf:about="">
        <dc:format>image/svg+xml</dc:format>
        <dc:type
           rdf:resource="http://purl.org/dc/dcmitype/StillImage" />
        <dc:title></dc:title>
      </cc:Work>
    </rdf:RDF>
  </metadata>
  <g
     inkscape:label="Capa 1"
     inkscape:groupmode="layer"
     id="layer1"
     transform="translate(0,-796.36218)">
    <rect
       ry="6.9086347"
       rx="6.060915"
       y="783.14386"
       x="-13.218307"
       height="282.43661"
       width="282.43661"
       id="rect2987"
       style="fill:#87de87;fill-opacity:1;fill-rule:nonzero;stroke:none" />
    <path
       sodipodi:type="arc"
       style="fill:#808080;fill-opacity:1;fill-rule:nonzero;stroke:none"
       id="path3039"
       sodipodi:cx="132.83505"
       sodipodi:cy="122.65987"
       sodipodi:rx="62.629459"
       sodipodi:ry="62.629459"
       d="m 195.46451,122.65987 c 0,34.58929 -28.04016,62.62946 -62.62946,62.62946 -34.589293,0 -62.629457,-28.04017 -62.629457,-62.62946 0,-34.589299 28.040164,-62.629463 62.629457,-62.629463 34.5893,0 62.62946,28.040164 62.62946,62.629463 z"
       transform="matrix(1.5360325,0,0,1.5360325,-384.2557,661.15347)" />
    <path
       style="fill:#eeffaa;fill-opacity:1;fill-rule:nonzero;stroke:none"
       d="m 10.174967,796.36218 c -5.6354635,0 -10.1749655,5.1674 -10.1749655,11.59107 l 0,101.12025 111.0854485,0 c 5.63546,0 10.17496,-5.16738 10.17496,-11.59107 l 0,-101.12025 -111.085443,0 z m 133.113693,0 0,101.12025 c 0,6.42369 4.53951,11.59107 10.17497,11.59107 l 102.53637,0 0,-101.12025 c 0,-6.42367 -4.53952,-11.59107 -10.17497,-11.59107 l -102.53637,0 z M 1.5e-6,927.74508 l 0,113.02602 c 0,6.4236 4.539502,11.5911 10.1749655,11.5911 l 111.085443,0 0,-113.02605 c 0,-6.42366 -4.5395,-11.59107 -10.17496,-11.59107 l -111.0854485,0 z m 153.4636285,0 c -5.63546,0 -10.17497,5.16741 -10.17497,11.59107 l 0,113.02605 102.53637,0 c 5.63545,0 10.17497,-5.1675 10.17497,-11.5911 l 0,-113.02602 -102.53637,0 z"
       id="rect2985"
       inkscape:connector-curvature="0" />
    <path
       style="fill:none;stroke:#000000;stroke-width:6;stroke-linecap:round;stroke-linejoin:miter;stroke-miterlimit:4;stroke-opacity:1;stroke-dasharray:none;opacity:0.2"
       d="m 52.226808,900.35961 c 0,0 23.345392,-0.008 39.911001,-0.008 16.565611,0 18.899841,-3.05182 18.899841,-19.23482 0,-16.183 -0.0128,-42.76389 -0.0128,-42.76389"
       id="path3041"
       inkscape:connector-curvature="0"
       sodipodi:nodetypes="czzc" />
    <path
       sodipodi:nodetypes="czzc"
       inkscape:connector-curvature="0"
       id="path3811"
       d="m 212.55798,900.35961 c 0,0 -23.34539,-0.008 -39.911,-0.008 -16.56561,0 -18.89984,-3.05182 -18.89984,-19.23482 0,-16.183 0.0128,-42.76389 0.0128,-42.76389"
       style="opacity:0.2;fill:none;stroke:#000000;stroke-width:6;stroke-linecap:round;stroke-linejoin:miter;stroke-miterlimit:4;stroke-opacity:1;stroke-dasharray:none" />
    <path
       sodipodi:nodetypes="czzc"
       inkscape:connector-curvature="0"
       id="path3813"
       d="m 52.226808,936.3377 c 0,0 23.345392,0.008 39.911001,0.008 16.565611,0 18.899841,3.05182 18.899841,19.23482 0,16.183 -0.0128,42.76389 -0.0128,42.76389"
       style="opacity:0.2;fill:none;stroke:#000000;stroke-width:6;stroke-linecap:round;stroke-linejoin:miter;stroke-miterlimit:4;stroke-opacity:1;stroke-dasharray:none" />
    <path
       style="opacity:0.2;fill:none;stroke:#000000;stroke-width:6;stroke-linecap:round;stroke-linejoin:miter;stroke-miterlimit:4;stroke-opacity:1;stroke-dasharray:none"
       d="m 212.55798,936.3377 c 0,0 -23.34539,0.008 -39.911,0.008 -16.56561,0 -18.89984,3.05182 -18.89984,19.23482 0,16.183 0.0128,42.76389 0.0128,42.76389"
       id="path3815"
       inkscape:connector-curvature="0"
       sodipodi:nodetypes="czzc" />
    <rect
       style="fill:#999999;fill-opacity:1;fill-rule:nonzero;stroke:none;opacity:0"
       id="rect3912"
       width="80"
       height="80"
       x="-368.57141"
       y="767.36218"
       inkscape:export-filename="C:\Appserver\www\threejs\applications\Project Games\balls_io\imgs\shoot.png"
       inkscape:export-xdpi="288"
       inkscape:export-ydpi="288" />
    <g
       id="g3905"
       transform="matrix(1.1696185,0,0,1.1696185,-16.036559,-183.35839)"
       inkscape:export-filename="C:\Appserver\www\threejs\applications\Project Games\balls_io\imgs\shoot.png"
       inkscape:export-xdpi="288"
       inkscape:export-ydpi="288"
       style="fill:#aa4400">
      <rect
         transform="matrix(1,0,0,0.78580073,0,181.43662)"
         y="822.68341"
         x="-294.64285"
         height="8.5714283"
         width="36.42857"
         id="rect3855"
         style="fill:#aa4400;fill-opacity:1;fill-rule:nonzero;stroke:none;filter:url(#filter3901)" />
      <rect
         transform="matrix(1,0,0,0.78580073,0,181.43662)"
         style="fill:#aa4400;fill-opacity:1;fill-rule:nonzero;stroke:none;filter:url(#filter3897)"
         id="rect3857"
         width="36.42857"
         height="8.5714283"
         x="-294.64285"
         y="843.13898" />
      <rect
         transform="matrix(1,0,0,0.78580073,0,181.43662)"
         y="862.83698"
         x="-294.64285"
         height="8.5714283"
         width="36.42857"
         id="rect3859"
         style="fill:#aa4400;fill-opacity:1;fill-rule:nonzero;stroke:none;filter:url(#filter3893)" />
      <rect
         transform="matrix(1,0,0,0.78580073,0,181.43662)"
         style="fill:#aa4400;fill-opacity:1;fill-rule:nonzero;stroke:none;filter:url(#filter3889)"
         id="rect3861"
         width="36.42857"
         height="8.5714283"
         x="-276.20758"
         y="832.53241" />
      <rect
         transform="matrix(1,0,0,0.78580073,0,181.43662)"
         y="852.98798"
         x="-276.20758"
         height="8.5714283"
         width="36.42857"
         id="rect3863"
         style="fill:#aa4400;fill-opacity:1;fill-rule:nonzero;stroke:none;filter:url(#filter3885)" />
    </g>
    <g
       id="g3029"
       inkscape:export-filename="C:\Appserver\www\threejs\applications\Project Games\balls_io\modelos\nave.png"
       inkscape:export-xdpi="230.39999"
       inkscape:export-ydpi="230.39999">
      <path
         sodipodi:nodetypes="ccccccc"
         inkscape:connector-curvature="0"
         id="rect3016"
         d="m 80.307127,1103.38 50.000003,26.769 50,-26.769 0,25.7538 -50,74.2462 -50.000003,-74.2462 z"
         style="fill:#aa4400;fill-opacity:1;fill-rule:nonzero;stroke:none" />
      <path
         inkscape:connector-curvature="0"
         id="path3023"
         d="m 97.272549,1122.5818 0,16.9937 18.899591,28.0715 0,-34.9404 -18.899591,-10.1248 z m 66.069161,0 -18.89959,10.1248 0,34.9404 18.89959,-28.0715 0,-16.9937 z"
         style="fill:#ffdd55;fill-opacity:1;fill-rule:nonzero;stroke:none" />
    </g>
  </g>
</svg>
