{
    "colors":[],
    "metadata":{
        "faces":968,
        "vertices":529,
        "type":"Geometry",
        "materials":1,
        "colors":0,
        "version":3,
        "normals":34,
        "generator":"io_three",
        "uvs":1
    },
    "faces":[42,442,0,1,0,0,1,2,0,0,0,42,443,1,2,0,0,1,2,1,1,1,42,444,2,3,0,0,1,2,2,2,2,42,445,3,4,0,0,1,2,2,2,2,42,446,4,5,0,0,1,2,0,0,0,42,447,5,6,0,0,1,2,3,3,3,42,448,6,7,0,0,1,2,2,2,2,42,449,7,8,0,0,1,2,2,2,2,42,450,8,9,0,0,1,2,4,4,4,42,451,9,10,0,0,1,2,2,2,2,42,452,10,11,0,0,1,2,4,4,4,42,453,11,12,0,0,1,2,5,5,5,42,454,12,13,0,0,1,2,4,4,4,42,455,13,14,0,0,1,2,6,6,6,42,456,14,15,0,0,1,2,2,2,2,42,457,15,16,0,0,1,2,2,2,2,42,458,16,17,0,0,1,2,7,7,7,42,459,17,18,0,0,1,2,2,2,2,42,460,18,19,0,0,1,2,0,0,0,42,461,19,20,0,0,1,2,1,1,1,42,527,20,504,0,0,1,2,1,1,1,42,421,482,481,0,0,1,2,8,8,8,42,422,481,480,0,0,1,2,0,0,0,42,423,480,479,0,0,1,2,2,2,2,42,424,479,478,0,0,1,2,9,9,9,42,425,478,477,0,0,1,2,10,10,10,42,426,477,476,0,0,1,2,11,11,11,42,427,476,475,0,0,1,2,12,12,12,42,428,475,474,0,0,1,2,13,13,13,42,429,474,473,0,0,1,2,5,5,5,42,430,473,472,0,0,1,2,14,14,14,42,431,472,471,0,0,1,2,2,2,2,42,432,471,470,0,0,1,2,4,4,4,42,433,470,469,0,0,1,2,15,15,15,42,434,469,468,0,0,1,2,11,11,11,42,435,468,467,0,0,1,2,16,16,16,42,436,467,466,0,0,1,2,17,17,17,42,437,466,465,0,0,1,2,2,2,2,42,438,465,464,0,0,1,2,2,2,2,42,439,464,463,0,0,1,2,8,8,8,42,440,463,462,0,0,1,2,0,0,0,42,524,462,528,0,0,1,2,1,1,1,42,400,420,421,0,0,1,2,0,0,0,42,401,421,422,0,0,1,2,1,1,1,42,402,422,423,0,0,1,2,2,2,2,42,403,423,424,0,0,1,2,2,2,2,42,404,424,425,0,0,1,2,0,0,0,42,405,425,426,0,0,1,2,3,3,3,42,406,426,427,0,0,1,2,2,2,2,42,407,427,428,0,0,1,2,2,2,2,42,408,428,429,0,0,1,2,4,4,4,42,409,429,430,0,0,1,2,2,2,2,42,410,430,431,0,0,1,2,4,4,4,42,411,431,432,0,0,1,2,5,5,5,42,412,432,433,0,0,1,2,4,4,4,42,413,433,434,0,0,1,2,6,6,6,42,414,434,435,0,0,1,2,2,2,2,42,415,435,436,0,0,1,2,2,2,2,42,416,436,437,0,0,1,2,7,7,7,42,417,437,438,0,0,1,2,2,2,2,42,418,438,439,0,0,1,2,0,0,0,42,419,439,440,0,0,1,2,1,1,1,42,523,440,524,0,0,1,2,1,1,1,42,379,399,400,0,0,1,2,6,6,6,42,380,400,401,0,0,1,2,1,1,1,42,381,401,402,0,0,1,2,2,2,2,42,382,402,403,0,0,1,2,2,2,2,42,383,403,404,0,0,1,2,6,6,6,42,384,404,405,0,0,1,2,3,3,3,42,385,405,406,0,0,1,2,2,2,2,42,386,406,407,0,0,1,2,2,2,2,42,387,407,408,0,0,1,2,4,4,4,42,388,408,409,0,0,1,2,2,2,2,42,389,409,410,0,0,1,2,4,4,4,42,390,410,411,0,0,1,2,5,5,5,42,391,411,412,0,0,1,2,5,5,5,42,392,412,413,0,0,1,2,6,6,6,42,393,413,414,0,0,1,2,2,2,2,42,394,414,415,0,0,1,2,2,2,2,42,395,415,416,0,0,1,2,18,18,18,42,396,416,417,0,0,1,2,2,2,2,42,397,417,418,0,0,1,2,6,6,6,42,398,418,419,0,0,1,2,1,1,1,42,522,419,523,0,0,1,2,1,1,1,42,358,378,379,0,0,1,2,6,6,6,42,359,379,380,0,0,1,2,5,5,5,42,360,380,381,0,0,1,2,2,2,2,42,361,381,382,0,0,1,2,2,2,2,42,362,382,383,0,0,1,2,6,6,6,42,363,383,384,0,0,1,2,3,3,3,42,364,384,385,0,0,1,2,2,2,2,42,365,385,386,0,0,1,2,2,2,2,42,366,386,387,0,0,1,2,4,4,4,42,367,387,388,0,0,1,2,2,2,2,42,368,388,389,0,0,1,2,4,4,4,42,369,389,390,0,0,1,2,5,5,5,42,370,390,391,0,0,1,2,5,5,5,42,371,391,392,0,0,1,2,0,0,0,42,372,392,393,0,0,1,2,2,2,2,42,373,393,394,0,0,1,2,2,2,2,42,374,394,395,0,0,1,2,7,7,7,42,375,395,396,0,0,1,2,2,2,2,42,376,396,397,0,0,1,2,6,6,6,42,377,397,398,0,0,1,2,5,5,5,42,521,398,522,0,0,1,2,5,5,5,42,337,357,358,0,0,1,2,6,6,6,42,338,358,359,0,0,1,2,1,1,1,42,339,359,360,0,0,1,2,4,4,4,42,340,360,361,0,0,1,2,4,4,4,42,341,361,362,0,0,1,2,6,6,6,42,342,362,363,0,0,1,2,3,3,3,42,343,363,364,0,0,1,2,4,4,4,42,344,364,365,0,0,1,2,2,2,2,42,345,365,366,0,0,1,2,1,1,1,42,346,366,367,0,0,1,2,4,4,4,42,347,367,368,0,0,1,2,1,1,1,42,348,368,369,0,0,1,2,5,5,5,42,349,369,370,0,0,1,2,4,4,4,42,350,370,371,0,0,1,2,19,19,19,42,351,371,372,0,0,1,2,4,4,4,42,352,372,373,0,0,1,2,4,4,4,42,353,373,374,0,0,1,2,7,7,7,42,354,374,375,0,0,1,2,4,4,4,42,355,375,376,0,0,1,2,6,6,6,42,356,376,377,0,0,1,2,1,1,1,42,520,377,521,0,0,1,2,1,1,1,42,337,315,336,0,2,3,1,0,0,0,42,338,316,337,0,2,3,1,5,5,5,42,318,338,339,0,0,1,2,2,2,2,42,319,339,340,0,0,1,2,2,2,2,42,341,319,340,0,2,3,1,6,6,6,42,321,341,342,0,0,1,2,3,3,3,42,322,342,343,0,0,1,2,2,2,2,42,323,343,344,0,0,1,2,2,2,2,42,324,344,345,0,0,1,2,4,4,4,42,325,345,346,0,0,1,2,2,2,2,42,326,346,347,0,0,1,2,4,4,4,42,327,347,348,0,0,1,2,5,5,5,42,328,348,349,0,0,1,2,5,5,5,42,329,349,350,0,0,1,2,0,0,0,42,330,350,351,0,0,1,2,2,2,2,42,331,351,352,0,0,1,2,2,2,2,42,332,352,353,0,0,1,2,7,7,7,42,333,353,354,0,0,1,2,2,2,2,42,334,354,355,0,0,1,2,6,6,6,42,335,355,356,0,0,1,2,5,5,5,42,519,356,520,0,0,1,2,5,5,5,42,316,294,315,0,2,3,1,6,6,6,42,317,295,316,0,2,3,1,1,1,1,42,297,317,318,0,0,1,2,2,2,2,42,319,297,318,0,2,3,1,2,2,2,42,320,298,319,0,2,3,1,0,0,0,42,300,320,321,0,0,1,2,3,3,3,42,301,321,322,0,0,1,2,2,2,2,42,302,322,323,0,0,1,2,2,2,2,42,303,323,324,0,0,1,2,4,4,4,42,304,324,325,0,0,1,2,2,2,2,42,305,325,326,0,0,1,2,4,4,4,42,306,326,327,0,0,1,2,5,5,5,42,307,327,328,0,0,1,2,5,5,5,42,308,328,329,0,0,1,2,0,0,0,42,309,329,330,0,0,1,2,2,2,2,42,310,330,331,0,0,1,2,2,2,2,42,311,331,332,0,0,1,2,7,7,7,42,312,332,333,0,0,1,2,2,2,2,42,313,333,334,0,0,1,2,6,6,6,42,314,334,335,0,0,1,2,5,5,5,42,518,335,519,0,0,1,2,5,5,5,42,295,273,294,0,2,3,1,6,6,6,42,296,274,295,0,2,3,1,5,5,5,42,276,296,297,0,0,1,2,2,2,2,42,298,276,297,0,2,3,1,2,2,2,42,299,277,298,0,2,3,1,6,6,6,42,279,299,300,0,0,1,2,3,3,3,42,280,300,301,0,0,1,2,4,4,4,42,281,301,302,0,0,1,2,0,0,0,42,282,302,303,0,0,1,2,5,5,5,42,283,303,304,0,0,1,2,4,4,4,42,284,304,305,0,0,1,2,5,5,5,42,285,305,306,0,0,1,2,5,5,5,42,286,306,307,0,0,1,2,4,4,4,42,287,307,308,0,0,1,2,19,19,19,42,288,308,309,0,0,1,2,4,4,4,42,289,309,310,0,0,1,2,4,4,4,42,290,310,311,0,0,1,2,18,18,18,42,291,311,312,0,0,1,2,4,4,4,42,292,312,313,0,0,1,2,0,0,0,42,293,313,314,0,0,1,2,1,1,1,42,517,314,518,0,0,1,2,1,1,1,42,274,252,273,0,2,3,1,0,0,0,42,275,253,274,0,2,3,1,5,5,5,42,255,275,276,0,0,1,2,4,4,4,42,256,276,277,0,0,1,2,4,4,4,42,278,256,277,0,2,3,1,2,2,2,42,279,257,278,0,2,3,1,3,3,3,42,259,279,280,0,0,1,2,4,4,4,42,260,280,281,0,0,1,2,2,2,2,42,282,260,281,0,2,3,1,5,5,5,42,283,261,282,0,2,3,1,2,2,2,42,263,283,284,0,0,1,2,5,5,5,42,264,284,285,0,0,1,2,5,5,5,42,265,285,286,0,0,1,2,4,4,4,42,266,286,287,0,0,1,2,19,19,19,42,267,287,288,0,0,1,2,4,4,4,42,268,288,289,0,0,1,2,4,4,4,42,269,289,290,0,0,1,2,18,18,18,42,270,290,291,0,0,1,2,4,4,4,42,271,291,292,0,0,1,2,0,0,0,42,272,292,293,0,0,1,2,1,1,1,42,516,293,517,0,0,1,2,1,1,1,42,253,231,252,0,2,3,1,6,6,6,42,254,232,253,0,2,3,1,1,1,1,42,234,254,255,0,0,1,2,4,4,4,42,235,255,256,0,0,1,2,4,4,4,42,236,256,257,0,0,1,2,2,2,2,42,258,236,257,0,2,3,1,3,3,3,42,238,258,259,0,0,1,2,2,2,2,42,239,259,260,0,0,1,2,2,2,2,42,261,239,260,0,2,3,1,4,4,4,42,262,240,261,0,2,3,1,2,2,2,42,242,262,263,0,0,1,2,4,4,4,42,243,263,264,0,0,1,2,4,4,4,42,244,264,265,0,0,1,2,4,4,4,42,266,244,265,0,2,3,1,6,6,6,42,246,266,267,0,0,1,2,2,2,2,42,247,267,268,0,0,1,2,2,2,2,42,269,247,268,0,2,3,1,18,18,18,42,270,248,269,0,2,3,1,4,4,4,42,250,270,271,0,0,1,2,6,6,6,42,251,271,272,0,0,1,2,5,5,5,42,516,251,272,0,2,3,1,5,5,5,42,232,210,231,0,2,3,1,0,0,0,42,233,211,232,0,2,3,1,5,5,5,42,234,212,233,0,2,3,1,2,2,2,42,214,234,235,0,0,1,2,4,4,4,42,236,214,235,0,2,3,1,0,0,0,42,237,215,236,0,2,3,1,3,3,3,42,238,216,237,0,2,3,1,4,4,4,42,218,238,239,0,0,1,2,0,0,0,42,240,218,239,0,2,3,1,5,5,5,42,241,219,240,0,2,3,1,4,4,4,42,221,241,242,0,0,1,2,5,5,5,42,243,221,242,0,2,3,1,5,5,5,42,223,243,244,0,0,1,2,4,4,4,42,245,223,244,0,2,3,1,19,19,19,42,225,245,246,0,0,1,2,4,4,4,42,247,225,246,0,2,3,1,4,4,4,42,248,226,247,0,2,3,1,18,18,18,42,249,227,248,0,2,3,1,4,4,4,42,229,249,250,0,0,1,2,0,0,0,42,251,229,250,0,2,3,1,5,5,5,42,515,230,251,0,2,3,1,5,5,5,42,211,189,210,0,2,3,1,6,6,6,42,212,190,211,0,2,3,1,5,5,5,42,213,191,212,0,2,3,1,4,4,4,42,193,213,214,0,0,1,2,5,5,5,42,215,193,214,0,2,3,1,6,6,6,42,195,215,216,0,0,1,2,20,20,20,42,217,195,216,0,2,3,1,2,2,2,42,197,217,218,0,0,1,2,2,2,2,42,219,197,218,0,2,3,1,5,5,5,42,220,198,219,0,2,3,1,2,2,2,42,200,220,221,0,0,1,2,5,5,5,42,222,200,221,0,2,3,1,5,5,5,42,202,222,223,0,0,1,2,1,1,1,42,203,223,224,0,0,1,2,0,0,0,42,204,224,225,0,0,1,2,4,4,4,42,226,204,225,0,2,3,1,4,4,4,42,227,205,226,0,2,3,1,7,7,7,42,228,206,227,0,2,3,1,2,2,2,42,208,228,229,0,0,1,2,6,6,6,42,230,208,229,0,2,3,1,5,5,5,42,514,209,230,0,2,3,1,5,5,5,42,190,168,189,0,2,3,1,0,0,0,42,191,169,190,0,2,3,1,1,1,1,42,171,191,192,0,0,1,2,4,4,4,42,172,192,193,0,0,1,2,4,4,4,42,194,172,193,0,2,3,1,0,0,0,42,195,173,194,0,2,3,1,3,3,3,42,175,195,196,0,0,1,2,2,2,2,42,176,196,197,0,0,1,2,2,2,2,42,198,176,197,0,2,3,1,4,4,4,42,199,177,198,0,2,3,1,4,4,4,42,179,199,200,0,0,1,2,4,4,4,42,180,200,201,0,0,1,2,1,1,1,42,202,180,201,0,2,3,1,1,1,1,42,182,202,203,0,0,1,2,6,6,6,42,183,203,204,0,0,1,2,2,2,2,42,205,183,204,0,2,3,1,2,2,2,42,206,184,205,0,2,3,1,7,7,7,42,207,185,206,0,2,3,1,4,4,4,42,187,207,208,0,0,1,2,0,0,0,42,209,187,208,0,2,3,1,1,1,1,42,513,188,209,0,2,3,1,5,5,5,42,169,147,168,0,2,3,1,0,0,0,42,170,148,169,0,2,3,1,1,1,1,42,171,149,170,0,2,3,1,2,2,2,42,172,150,171,0,2,3,1,2,2,2,42,173,151,172,0,2,3,1,6,6,6,42,153,173,174,0,0,1,2,3,3,3,42,154,174,175,0,0,1,2,4,4,4,42,155,175,176,0,0,1,2,2,2,2,42,177,155,176,0,2,3,1,4,4,4,42,178,156,177,0,2,3,1,2,2,2,42,158,178,179,0,0,1,2,5,5,5,42,159,179,180,0,0,1,2,5,5,5,42,160,180,181,0,0,1,2,4,4,4,42,161,181,182,0,0,1,2,19,19,19,42,162,182,183,0,0,1,2,4,4,4,42,163,183,184,0,0,1,2,4,4,4,42,164,184,185,0,0,1,2,18,18,18,42,165,185,186,0,0,1,2,4,4,4,42,166,186,187,0,0,1,2,0,0,0,42,167,187,188,0,0,1,2,1,1,1,42,511,188,512,0,0,1,2,1,1,1,42,148,126,147,0,2,3,1,6,6,6,42,128,148,149,0,0,1,2,1,1,1,42,150,128,149,0,2,3,1,2,2,2,42,151,129,150,0,2,3,1,2,2,2,42,152,130,151,0,2,3,1,6,6,6,42,132,152,153,0,0,1,2,3,3,3,42,133,153,154,0,0,1,2,2,2,2,42,134,154,155,0,0,1,2,2,2,2,42,135,155,156,0,0,1,2,4,4,4,42,136,156,157,0,0,1,2,2,2,2,42,137,157,158,0,0,1,2,4,4,4,42,138,158,159,0,0,1,2,5,5,5,42,139,159,160,0,0,1,2,5,5,5,42,140,160,161,0,0,1,2,0,0,0,42,141,161,162,0,0,1,2,2,2,2,42,142,162,163,0,0,1,2,2,2,2,42,143,163,164,0,0,1,2,7,7,7,42,144,164,165,0,0,1,2,2,2,2,42,145,165,166,0,0,1,2,6,6,6,42,146,166,167,0,0,1,2,5,5,5,42,510,167,511,0,0,1,2,5,5,5,42,127,105,126,0,2,3,1,0,0,0,42,107,127,128,0,0,1,2,5,5,5,42,129,107,128,0,2,3,1,2,2,2,42,130,108,129,0,2,3,1,2,2,2,42,131,109,130,0,2,3,1,6,6,6,42,111,131,132,0,0,1,2,3,3,3,42,112,132,133,0,0,1,2,2,2,2,42,113,133,134,0,0,1,2,2,2,2,42,114,134,135,0,0,1,2,4,4,4,42,115,135,136,0,0,1,2,2,2,2,42,116,136,137,0,0,1,2,4,4,4,42,117,137,138,0,0,1,2,5,5,5,42,118,138,139,0,0,1,2,4,4,4,42,119,139,140,0,0,1,2,6,6,6,42,120,140,141,0,0,1,2,2,2,2,42,121,141,142,0,0,1,2,2,2,2,42,122,142,143,0,0,1,2,7,7,7,42,123,143,144,0,0,1,2,2,2,2,42,124,144,145,0,0,1,2,0,0,0,42,125,145,146,0,0,1,2,1,1,1,42,509,146,510,0,0,1,2,1,1,1,42,106,84,105,0,2,3,1,6,6,6,42,86,106,107,0,0,1,2,1,1,1,42,108,86,107,0,2,3,1,2,2,2,42,109,87,108,0,2,3,1,2,2,2,42,89,109,110,0,0,1,2,6,6,6,42,90,110,111,0,0,1,2,3,3,3,42,91,111,112,0,0,1,2,2,2,2,42,92,112,113,0,0,1,2,2,2,2,42,93,113,114,0,0,1,2,4,4,4,42,94,114,115,0,0,1,2,2,2,2,42,95,115,116,0,0,1,2,4,4,4,42,96,116,117,0,0,1,2,5,5,5,42,97,117,118,0,0,1,2,5,5,5,42,98,118,119,0,0,1,2,6,6,6,42,99,119,120,0,0,1,2,2,2,2,42,100,120,121,0,0,1,2,2,2,2,42,101,121,122,0,0,1,2,18,18,18,42,102,122,123,0,0,1,2,2,2,2,42,103,123,124,0,0,1,2,6,6,6,42,104,124,125,0,0,1,2,1,1,1,42,508,125,509,0,0,1,2,1,1,1,42,85,63,84,0,2,3,1,6,6,6,42,65,85,86,0,0,1,2,5,5,5,42,66,86,87,0,0,1,2,2,2,2,42,67,87,88,0,0,1,2,2,2,2,42,68,88,89,0,0,1,2,6,6,6,42,69,89,90,0,0,1,2,3,3,3,42,70,90,91,0,0,1,2,2,2,2,42,71,91,92,0,0,1,2,2,2,2,42,72,92,93,0,0,1,2,4,4,4,42,73,93,94,0,0,1,2,2,2,2,42,74,94,95,0,0,1,2,4,4,4,42,75,95,96,0,0,1,2,5,5,5,42,76,96,97,0,0,1,2,5,5,5,42,77,97,98,0,0,1,2,0,0,0,42,78,98,99,0,0,1,2,2,2,2,42,79,99,100,0,0,1,2,2,2,2,42,80,100,101,0,0,1,2,7,7,7,42,81,101,102,0,0,1,2,2,2,2,42,82,102,103,0,0,1,2,6,6,6,42,83,103,104,0,0,1,2,5,5,5,42,507,104,508,0,0,1,2,5,5,5,42,43,63,64,0,0,1,2,6,6,6,42,44,64,65,0,0,1,2,5,5,5,42,45,65,66,0,0,1,2,2,2,2,42,46,66,67,0,0,1,2,2,2,2,42,47,67,68,0,0,1,2,6,6,6,42,48,68,69,0,0,1,2,3,3,3,42,49,69,70,0,0,1,2,2,2,2,42,50,70,71,0,0,1,2,2,2,2,42,51,71,72,0,0,1,2,4,4,4,42,52,72,73,0,0,1,2,2,2,2,42,53,73,74,0,0,1,2,4,4,4,42,54,74,75,0,0,1,2,5,5,5,42,55,75,76,0,0,1,2,5,5,5,42,56,76,77,0,0,1,2,0,0,0,42,57,77,78,0,0,1,2,2,2,2,42,58,78,79,0,0,1,2,2,2,2,42,59,79,80,0,0,1,2,7,7,7,42,60,80,81,0,0,1,2,2,2,2,42,61,81,82,0,0,1,2,6,6,6,42,62,82,83,0,0,1,2,5,5,5,42,506,83,507,0,0,1,2,5,5,5,42,43,21,42,0,2,3,1,6,6,6,42,23,43,44,0,0,1,2,1,1,1,42,24,44,45,0,0,1,2,2,2,2,42,25,45,46,0,0,1,2,2,2,2,42,26,46,47,0,0,1,2,0,0,0,42,27,47,48,0,0,1,2,3,3,3,42,28,48,49,0,0,1,2,2,2,2,42,29,49,50,0,0,1,2,2,2,2,42,30,50,51,0,0,1,2,4,4,4,42,31,51,52,0,0,1,2,2,2,2,42,32,52,53,0,0,1,2,4,4,4,42,33,53,54,0,0,1,2,5,5,5,42,34,54,55,0,0,1,2,4,4,4,42,35,55,56,0,0,1,2,6,6,6,42,36,56,57,0,0,1,2,2,2,2,42,37,57,58,0,0,1,2,2,2,2,42,38,58,59,0,0,1,2,7,7,7,42,39,59,60,0,0,1,2,2,2,2,42,40,60,61,0,0,1,2,0,0,0,42,41,61,62,0,0,1,2,1,1,1,42,505,62,506,0,0,1,2,1,1,1,42,22,0,21,0,2,3,1,0,0,0,42,2,22,23,0,0,1,2,1,1,1,42,3,23,24,0,0,1,2,2,2,2,42,4,24,25,0,0,1,2,2,2,2,42,5,25,26,0,0,1,2,6,6,6,42,6,26,27,0,0,1,2,3,3,3,42,7,27,28,0,0,1,2,2,2,2,42,8,28,29,0,0,1,2,2,2,2,42,9,29,30,0,0,1,2,4,4,4,42,10,30,31,0,0,1,2,2,2,2,42,11,31,32,0,0,1,2,4,4,4,42,12,32,33,0,0,1,2,5,5,5,42,13,33,34,0,0,1,2,5,5,5,42,14,34,35,0,0,1,2,6,6,6,42,15,35,36,0,0,1,2,2,2,2,42,16,36,37,0,0,1,2,2,2,2,42,17,37,38,0,0,1,2,18,18,18,42,18,38,39,0,0,1,2,2,2,2,42,19,39,40,0,0,1,2,6,6,6,42,20,40,41,0,0,1,2,1,1,1,42,504,41,505,0,0,1,2,1,1,1,42,0,502,21,0,0,1,2,1,1,1,42,21,501,42,0,0,1,2,1,1,1,42,42,500,63,0,0,1,2,5,5,5,42,63,499,84,0,0,1,2,1,1,1,42,105,499,498,0,2,3,1,5,5,5,42,126,498,497,0,2,3,1,5,5,5,42,147,497,496,0,2,3,1,1,1,1,42,168,496,495,0,2,3,1,1,1,1,42,168,494,189,0,0,1,2,5,5,5,42,189,493,210,0,0,1,2,1,1,1,42,210,492,231,0,0,1,2,5,5,5,42,231,491,252,0,0,1,2,5,5,5,42,252,490,273,0,0,1,2,1,1,1,42,294,490,489,0,2,3,1,5,5,5,42,315,489,488,0,2,3,1,1,1,1,42,336,488,487,0,2,3,1,1,1,1,42,357,487,486,0,2,3,1,5,5,5,42,357,485,378,0,0,1,2,5,5,5,42,399,485,484,0,2,3,1,1,1,1,42,420,484,483,0,2,3,1,1,1,1,42,420,526,482,0,0,1,2,1,1,1,42,441,503,0,0,0,1,2,1,1,1,42,442,441,0,0,0,3,1,0,0,0,42,443,442,1,0,0,3,1,1,1,1,42,444,443,2,0,0,3,1,2,2,2,42,445,444,3,0,0,3,1,2,2,2,42,446,445,4,0,0,3,1,0,0,0,42,447,446,5,0,0,3,1,3,3,3,42,448,447,6,0,0,3,1,2,2,2,42,449,448,7,0,0,3,1,2,2,2,42,450,449,8,0,0,3,1,4,4,4,42,451,450,9,0,0,3,1,2,2,2,42,452,451,10,0,0,3,1,4,4,4,42,453,452,11,0,0,3,1,5,5,5,42,454,453,12,0,0,3,1,4,4,4,42,455,454,13,0,0,3,1,6,6,6,42,456,455,14,0,0,3,1,2,2,2,42,457,456,15,0,0,3,1,2,2,2,42,458,457,16,0,0,3,1,7,7,7,42,459,458,17,0,0,3,1,2,2,2,42,460,459,18,0,0,3,1,0,0,0,42,461,460,19,0,0,3,1,1,1,1,42,527,461,20,0,0,3,1,1,1,1,42,421,420,482,0,0,3,1,0,0,0,42,422,421,481,0,0,3,1,21,21,21,42,423,422,480,0,0,3,1,2,2,2,42,424,423,479,0,0,3,1,2,2,2,42,425,424,478,0,0,3,1,22,22,22,42,426,425,477,0,0,3,1,23,23,23,42,427,426,476,0,0,3,1,24,24,24,42,428,427,475,0,0,3,1,25,25,25,42,429,428,474,0,0,3,1,26,26,26,42,430,429,473,0,0,3,1,27,27,27,42,431,430,472,0,0,3,1,28,28,28,42,432,431,471,0,0,3,1,29,29,29,42,433,432,470,0,0,3,1,30,30,30,42,434,433,469,0,0,3,1,31,31,31,42,435,434,468,0,0,3,1,24,24,24,42,436,435,467,0,0,3,1,32,32,32,42,437,436,466,0,0,3,1,33,33,33,42,438,437,465,0,0,3,1,2,2,2,42,439,438,464,0,0,3,1,0,0,0,42,440,439,463,0,0,3,1,21,21,21,42,524,440,462,0,0,3,1,1,1,1,42,400,399,420,0,0,3,1,0,0,0,42,401,400,421,0,0,3,1,1,1,1,42,402,401,422,0,0,3,1,2,2,2,42,403,402,423,0,0,3,1,2,2,2,42,404,403,424,0,0,3,1,0,0,0,42,405,404,425,0,0,3,1,3,3,3,42,406,405,426,0,0,3,1,2,2,2,42,407,406,427,0,0,3,1,2,2,2,42,408,407,428,0,0,3,1,4,4,4,42,409,408,429,0,0,3,1,2,2,2,42,410,409,430,0,0,3,1,4,4,4,42,411,410,431,0,0,3,1,5,5,5,42,412,411,432,0,0,3,1,4,4,4,42,413,412,433,0,0,3,1,6,6,6,42,414,413,434,0,0,3,1,2,2,2,42,415,414,435,0,0,3,1,2,2,2,42,416,415,436,0,0,3,1,7,7,7,42,417,416,437,0,0,3,1,2,2,2,42,418,417,438,0,0,3,1,0,0,0,42,419,418,439,0,0,3,1,1,1,1,42,523,419,440,0,0,3,1,1,1,1,42,379,378,399,0,0,3,1,6,6,6,42,380,379,400,0,0,3,1,1,1,1,42,381,380,401,0,0,3,1,2,2,2,42,382,381,402,0,0,3,1,2,2,2,42,383,382,403,0,0,3,1,6,6,6,42,384,383,404,0,0,3,1,3,3,3,42,385,384,405,0,0,3,1,2,2,2,42,386,385,406,0,0,3,1,2,2,2,42,387,386,407,0,0,3,1,4,4,4,42,388,387,408,0,0,3,1,2,2,2,42,389,388,409,0,0,3,1,4,4,4,42,390,389,410,0,0,3,1,5,5,5,42,391,390,411,0,0,3,1,5,5,5,42,392,391,412,0,0,3,1,6,6,6,42,393,392,413,0,0,3,1,2,2,2,42,394,393,414,0,0,3,1,2,2,2,42,395,394,415,0,0,3,1,18,18,18,42,396,395,416,0,0,3,1,2,2,2,42,397,396,417,0,0,3,1,6,6,6,42,398,397,418,0,0,3,1,1,1,1,42,522,398,419,0,0,3,1,1,1,1,42,358,357,378,0,0,3,1,6,6,6,42,359,358,379,0,0,3,1,5,5,5,42,360,359,380,0,0,3,1,2,2,2,42,361,360,381,0,0,3,1,2,2,2,42,362,361,382,0,0,3,1,6,6,6,42,363,362,383,0,0,3,1,3,3,3,42,364,363,384,0,0,3,1,2,2,2,42,365,364,385,0,0,3,1,2,2,2,42,366,365,386,0,0,3,1,4,4,4,42,367,366,387,0,0,3,1,2,2,2,42,368,367,388,0,0,3,1,4,4,4,42,369,368,389,0,0,3,1,5,5,5,42,370,369,390,0,0,3,1,5,5,5,42,371,370,391,0,0,3,1,0,0,0,42,372,371,392,0,0,3,1,2,2,2,42,373,372,393,0,0,3,1,2,2,2,42,374,373,394,0,0,3,1,7,7,7,42,375,374,395,0,0,3,1,2,2,2,42,376,375,396,0,0,3,1,6,6,6,42,377,376,397,0,0,3,1,5,5,5,42,521,377,398,0,0,3,1,5,5,5,42,337,336,357,0,0,3,1,6,6,6,42,338,337,358,0,0,3,1,1,1,1,42,339,338,359,0,0,3,1,4,4,4,42,340,339,360,0,0,3,1,4,4,4,42,341,340,361,0,0,3,1,6,6,6,42,342,341,362,0,0,3,1,3,3,3,42,343,342,363,0,0,3,1,4,4,4,42,344,343,364,0,0,3,1,2,2,2,42,345,344,365,0,0,3,1,1,1,1,42,346,345,366,0,0,3,1,4,4,4,42,347,346,367,0,0,3,1,1,1,1,42,348,347,368,0,0,3,1,5,5,5,42,349,348,369,0,0,3,1,4,4,4,42,350,349,370,0,0,3,1,19,19,19,42,351,350,371,0,0,3,1,4,4,4,42,352,351,372,0,0,3,1,4,4,4,42,353,352,373,0,0,3,1,7,7,7,42,354,353,374,0,0,3,1,4,4,4,42,355,354,375,0,0,3,1,6,6,6,42,356,355,376,0,0,3,1,1,1,1,42,520,356,377,0,0,3,1,1,1,1,42,337,316,315,0,2,0,3,0,0,0,42,338,317,316,0,2,0,3,1,1,1,42,318,317,338,0,0,3,1,2,2,2,42,319,318,339,0,0,3,1,2,2,2,42,341,320,319,0,2,0,3,6,6,6,42,321,320,341,0,0,3,1,3,3,3,42,322,321,342,0,0,3,1,2,2,2,42,323,322,343,0,0,3,1,2,2,2,42,324,323,344,0,0,3,1,4,4,4,42,325,324,345,0,0,3,1,2,2,2,42,326,325,346,0,0,3,1,4,4,4,42,327,326,347,0,0,3,1,5,5,5,42,328,327,348,0,0,3,1,5,5,5,42,329,328,349,0,0,3,1,0,0,0,42,330,329,350,0,0,3,1,2,2,2,42,331,330,351,0,0,3,1,2,2,2,42,332,331,352,0,0,3,1,7,7,7,42,333,332,353,0,0,3,1,2,2,2,42,334,333,354,0,0,3,1,6,6,6,42,335,334,355,0,0,3,1,5,5,5,42,519,335,356,0,0,3,1,5,5,5,42,316,295,294,0,2,0,3,0,0,0,42,317,296,295,0,2,0,3,5,5,5,42,297,296,317,0,0,3,1,2,2,2,42,319,298,297,0,2,0,3,2,2,2,42,320,299,298,0,2,0,3,6,6,6,42,300,299,320,0,0,3,1,3,3,3,42,301,300,321,0,0,3,1,2,2,2,42,302,301,322,0,0,3,1,2,2,2,42,303,302,323,0,0,3,1,4,4,4,42,304,303,324,0,0,3,1,2,2,2,42,305,304,325,0,0,3,1,4,4,4,42,306,305,326,0,0,3,1,5,5,5,42,307,306,327,0,0,3,1,5,5,5,42,308,307,328,0,0,3,1,0,0,0,42,309,308,329,0,0,3,1,2,2,2,42,310,309,330,0,0,3,1,2,2,2,42,311,310,331,0,0,3,1,7,7,7,42,312,311,332,0,0,3,1,2,2,2,42,313,312,333,0,0,3,1,6,6,6,42,314,313,334,0,0,3,1,5,5,5,42,518,314,335,0,0,3,1,5,5,5,42,295,274,273,0,2,0,3,6,6,6,42,296,275,274,0,2,0,3,1,1,1,42,276,275,296,0,0,3,1,2,2,2,42,298,277,276,0,2,0,3,2,2,2,42,299,278,277,0,2,0,3,0,0,0,42,279,278,299,0,0,3,1,3,3,3,42,280,279,300,0,0,3,1,4,4,4,42,281,280,301,0,0,3,1,0,0,0,42,282,281,302,0,0,3,1,5,5,5,42,283,282,303,0,0,3,1,4,4,4,42,284,283,304,0,0,3,1,5,5,5,42,285,284,305,0,0,3,1,5,5,5,42,286,285,306,0,0,3,1,4,4,4,42,287,286,307,0,0,3,1,19,19,19,42,288,287,308,0,0,3,1,4,4,4,42,289,288,309,0,0,3,1,4,4,4,42,290,289,310,0,0,3,1,18,18,18,42,291,290,311,0,0,3,1,4,4,4,42,292,291,312,0,0,3,1,0,0,0,42,293,292,313,0,0,3,1,1,1,1,42,517,293,314,0,0,3,1,1,1,1,42,274,253,252,0,2,0,3,6,6,6,42,275,254,253,0,2,0,3,1,1,1,42,255,254,275,0,0,3,1,4,4,4,42,256,255,276,0,0,3,1,4,4,4,42,278,257,256,0,2,0,3,6,6,6,42,279,258,257,0,2,0,3,3,3,3,42,259,258,279,0,0,3,1,4,4,4,42,260,259,280,0,0,3,1,2,2,2,42,282,261,260,0,2,0,3,4,4,4,42,283,262,261,0,2,0,3,4,4,4,42,263,262,283,0,0,3,1,5,5,5,42,264,263,284,0,0,3,1,5,5,5,42,265,264,285,0,0,3,1,4,4,4,42,266,265,286,0,0,3,1,19,19,19,42,267,266,287,0,0,3,1,4,4,4,42,268,267,288,0,0,3,1,4,4,4,42,269,268,289,0,0,3,1,18,18,18,42,270,269,290,0,0,3,1,4,4,4,42,271,270,291,0,0,3,1,0,0,0,42,272,271,292,0,0,3,1,1,1,1,42,516,272,293,0,0,3,1,1,1,1,42,253,232,231,0,2,0,3,6,6,6,42,254,233,232,0,2,0,3,1,1,1,42,234,233,254,0,0,3,1,4,4,4,42,235,234,255,0,0,3,1,4,4,4,42,236,235,256,0,0,3,1,2,2,2,42,258,237,236,0,2,0,3,3,3,3,42,238,237,258,0,0,3,1,2,2,2,42,239,238,259,0,0,3,1,2,2,2,42,261,240,239,0,2,0,3,4,4,4,42,262,241,240,0,2,0,3,2,2,2,42,242,241,262,0,0,3,1,4,4,4,42,243,242,263,0,0,3,1,4,4,4,42,244,243,264,0,0,3,1,4,4,4,42,266,245,244,0,2,0,3,6,6,6,42,246,245,266,0,0,3,1,2,2,2,42,247,246,267,0,0,3,1,2,2,2,42,269,248,247,0,2,0,3,18,18,18,42,270,249,248,0,2,0,3,4,4,4,42,250,249,270,0,0,3,1,6,6,6,42,251,250,271,0,0,3,1,1,1,1,42,516,515,251,0,2,0,3,5,5,5,42,232,211,210,0,2,0,3,0,0,0,42,233,212,211,0,2,0,3,5,5,5,42,234,213,212,0,2,0,3,4,4,4,42,214,213,234,0,0,3,1,4,4,4,42,236,215,214,0,2,0,3,0,0,0,42,237,216,215,0,2,0,3,7,7,7,42,238,217,216,0,2,0,3,4,4,4,42,218,217,238,0,0,3,1,0,0,0,42,240,219,218,0,2,0,3,5,5,5,42,241,220,219,0,2,0,3,4,4,4,42,221,220,241,0,0,3,1,5,5,5,42,243,222,221,0,2,0,3,5,5,5,42,223,222,243,0,0,3,1,4,4,4,42,245,224,223,0,2,0,3,19,19,19,42,225,224,245,0,0,3,1,4,4,4,42,247,226,225,0,2,0,3,4,4,4,42,248,227,226,0,2,0,3,7,7,7,42,249,228,227,0,2,0,3,4,4,4,42,229,228,249,0,0,3,1,0,0,0,42,251,230,229,0,2,0,3,5,5,5,42,515,514,230,0,2,0,3,5,5,5,42,211,190,189,0,2,0,3,6,6,6,42,212,191,190,0,2,0,3,5,5,5,42,213,192,191,0,2,0,3,2,2,2,42,193,192,213,0,0,3,1,2,2,2,42,215,194,193,0,2,0,3,6,6,6,42,195,194,215,0,0,3,1,3,3,3,42,217,196,195,0,2,0,3,4,4,4,42,197,196,217,0,0,3,1,2,2,2,42,219,198,197,0,2,0,3,5,5,5,42,220,199,198,0,2,0,3,2,2,2,42,200,199,220,0,0,3,1,4,4,4,42,222,201,200,0,2,0,3,5,5,5,42,202,201,222,0,0,3,1,5,5,5,42,203,202,223,0,0,3,1,0,0,0,42,204,203,224,0,0,3,1,4,4,4,42,226,205,204,0,2,0,3,4,4,4,42,227,206,205,0,2,0,3,7,7,7,42,228,207,206,0,2,0,3,2,2,2,42,208,207,228,0,0,3,1,6,6,6,42,230,209,208,0,2,0,3,5,5,5,42,514,513,209,0,2,0,3,5,5,5,42,190,169,168,0,2,0,3,0,0,0,42,191,170,169,0,2,0,3,1,1,1,42,171,170,191,0,0,3,1,4,4,4,42,172,171,192,0,0,3,1,4,4,4,42,194,173,172,0,2,0,3,0,0,0,42,195,174,173,0,2,0,3,3,3,3,42,175,174,195,0,0,3,1,2,2,2,42,176,175,196,0,0,3,1,2,2,2,42,198,177,176,0,2,0,3,5,5,5,42,199,178,177,0,2,0,3,2,2,2,42,179,178,199,0,0,3,1,4,4,4,42,180,179,200,0,0,3,1,1,1,1,42,202,181,180,0,2,0,3,5,5,5,42,182,181,202,0,0,3,1,6,6,6,42,183,182,203,0,0,3,1,2,2,2,42,205,184,183,0,2,0,3,2,2,2,42,206,185,184,0,2,0,3,18,18,18,42,207,186,185,0,2,0,3,4,4,4,42,187,186,207,0,0,3,1,0,0,0,42,209,188,187,0,2,0,3,5,5,5,42,513,512,188,0,2,0,3,5,5,5,42,169,148,147,0,2,0,3,0,0,0,42,170,149,148,0,2,0,3,5,5,5,42,171,150,149,0,2,0,3,2,2,2,42,172,151,150,0,2,0,3,4,4,4,42,173,152,151,0,2,0,3,0,0,0,42,153,152,173,0,0,3,1,3,3,3,42,154,153,174,0,0,3,1,4,4,4,42,155,154,175,0,0,3,1,2,2,2,42,177,156,155,0,2,0,3,4,4,4,42,178,157,156,0,2,0,3,4,4,4,42,158,157,178,0,0,3,1,5,5,5,42,159,158,179,0,0,3,1,5,5,5,42,160,159,180,0,0,3,1,4,4,4,42,161,160,181,0,0,3,1,19,19,19,42,162,161,182,0,0,3,1,4,4,4,42,163,162,183,0,0,3,1,4,4,4,42,164,163,184,0,0,3,1,18,18,18,42,165,164,185,0,0,3,1,4,4,4,42,166,165,186,0,0,3,1,0,0,0,42,167,166,187,0,0,3,1,1,1,1,42,511,167,188,0,0,3,1,1,1,1,42,148,127,126,0,2,0,3,0,0,0,42,128,127,148,0,0,3,1,1,1,1,42,150,129,128,0,2,0,3,2,2,2,42,151,130,129,0,2,0,3,2,2,2,42,152,131,130,0,2,0,3,6,6,6,42,132,131,152,0,0,3,1,3,3,3,42,133,132,153,0,0,3,1,2,2,2,42,134,133,154,0,0,3,1,2,2,2,42,135,134,155,0,0,3,1,4,4,4,42,136,135,156,0,0,3,1,2,2,2,42,137,136,157,0,0,3,1,4,4,4,42,138,137,158,0,0,3,1,5,5,5,42,139,138,159,0,0,3,1,5,5,5,42,140,139,160,0,0,3,1,0,0,0,42,141,140,161,0,0,3,1,2,2,2,42,142,141,162,0,0,3,1,2,2,2,42,143,142,163,0,0,3,1,7,7,7,42,144,143,164,0,0,3,1,2,2,2,42,145,144,165,0,0,3,1,6,6,6,42,146,145,166,0,0,3,1,5,5,5,42,510,146,167,0,0,3,1,5,5,5,42,127,106,105,0,2,0,3,6,6,6,42,107,106,127,0,0,3,1,5,5,5,42,129,108,107,0,2,0,3,2,2,2,42,130,109,108,0,2,0,3,4,4,4,42,131,110,109,0,2,0,3,0,0,0,42,111,110,131,0,0,3,1,3,3,3,42,112,111,132,0,0,3,1,2,2,2,42,113,112,133,0,0,3,1,2,2,2,42,114,113,134,0,0,3,1,4,4,4,42,115,114,135,0,0,3,1,2,2,2,42,116,115,136,0,0,3,1,4,4,4,42,117,116,137,0,0,3,1,5,5,5,42,118,117,138,0,0,3,1,4,4,4,42,119,118,139,0,0,3,1,6,6,6,42,120,119,140,0,0,3,1,2,2,2,42,121,120,141,0,0,3,1,2,2,2,42,122,121,142,0,0,3,1,7,7,7,42,123,122,143,0,0,3,1,2,2,2,42,124,123,144,0,0,3,1,0,0,0,42,125,124,145,0,0,3,1,1,1,1,42,509,125,146,0,0,3,1,1,1,1,42,106,85,84,0,2,0,3,0,0,0,42,86,85,106,0,0,3,1,1,1,1,42,108,87,86,0,2,0,3,2,2,2,42,109,88,87,0,2,0,3,2,2,2,42,89,88,109,0,0,3,1,6,6,6,42,90,89,110,0,0,3,1,3,3,3,42,91,90,111,0,0,3,1,2,2,2,42,92,91,112,0,0,3,1,2,2,2,42,93,92,113,0,0,3,1,4,4,4,42,94,93,114,0,0,3,1,2,2,2,42,95,94,115,0,0,3,1,4,4,4,42,96,95,116,0,0,3,1,5,5,5,42,97,96,117,0,0,3,1,5,5,5,42,98,97,118,0,0,3,1,6,6,6,42,99,98,119,0,0,3,1,2,2,2,42,100,99,120,0,0,3,1,2,2,2,42,101,100,121,0,0,3,1,18,18,18,42,102,101,122,0,0,3,1,2,2,2,42,103,102,123,0,0,3,1,6,6,6,42,104,103,124,0,0,3,1,1,1,1,42,508,104,125,0,0,3,1,1,1,1,42,85,64,63,0,2,0,3,6,6,6,42,65,64,85,0,0,3,1,5,5,5,42,66,65,86,0,0,3,1,2,2,2,42,67,66,87,0,0,3,1,2,2,2,42,68,67,88,0,0,3,1,6,6,6,42,69,68,89,0,0,3,1,3,3,3,42,70,69,90,0,0,3,1,2,2,2,42,71,70,91,0,0,3,1,2,2,2,42,72,71,92,0,0,3,1,4,4,4,42,73,72,93,0,0,3,1,2,2,2,42,74,73,94,0,0,3,1,4,4,4,42,75,74,95,0,0,3,1,5,5,5,42,76,75,96,0,0,3,1,5,5,5,42,77,76,97,0,0,3,1,0,0,0,42,78,77,98,0,0,3,1,2,2,2,42,79,78,99,0,0,3,1,2,2,2,42,80,79,100,0,0,3,1,7,7,7,42,81,80,101,0,0,3,1,2,2,2,42,82,81,102,0,0,3,1,6,6,6,42,83,82,103,0,0,3,1,5,5,5,42,507,83,104,0,0,3,1,5,5,5,42,43,42,63,0,0,3,1,6,6,6,42,44,43,64,0,0,3,1,5,5,5,42,45,44,65,0,0,3,1,2,2,2,42,46,45,66,0,0,3,1,2,2,2,42,47,46,67,0,0,3,1,6,6,6,42,48,47,68,0,0,3,1,3,3,3,42,49,48,69,0,0,3,1,2,2,2,42,50,49,70,0,0,3,1,2,2,2,42,51,50,71,0,0,3,1,4,4,4,42,52,51,72,0,0,3,1,2,2,2,42,53,52,73,0,0,3,1,4,4,4,42,54,53,74,0,0,3,1,5,5,5,42,55,54,75,0,0,3,1,5,5,5,42,56,55,76,0,0,3,1,0,0,0,42,57,56,77,0,0,3,1,2,2,2,42,58,57,78,0,0,3,1,2,2,2,42,59,58,79,0,0,3,1,7,7,7,42,60,59,80,0,0,3,1,2,2,2,42,61,60,81,0,0,3,1,6,6,6,42,62,61,82,0,0,3,1,5,5,5,42,506,62,83,0,0,3,1,5,5,5,42,43,22,21,0,2,0,3,0,0,0,42,23,22,43,0,0,3,1,1,1,1,42,24,23,44,0,0,3,1,2,2,2,42,25,24,45,0,0,3,1,2,2,2,42,26,25,46,0,0,3,1,0,0,0,42,27,26,47,0,0,3,1,3,3,3,42,28,27,48,0,0,3,1,2,2,2,42,29,28,49,0,0,3,1,2,2,2,42,30,29,50,0,0,3,1,4,4,4,42,31,30,51,0,0,3,1,2,2,2,42,32,31,52,0,0,3,1,4,4,4,42,33,32,53,0,0,3,1,5,5,5,42,34,33,54,0,0,3,1,4,4,4,42,35,34,55,0,0,3,1,6,6,6,42,36,35,56,0,0,3,1,2,2,2,42,37,36,57,0,0,3,1,2,2,2,42,38,37,58,0,0,3,1,7,7,7,42,39,38,59,0,0,3,1,2,2,2,42,40,39,60,0,0,3,1,0,0,0,42,41,40,61,0,0,3,1,1,1,1,42,505,41,62,0,0,3,1,1,1,1,42,22,1,0,0,2,0,3,6,6,6,42,2,1,22,0,0,3,1,1,1,1,42,3,2,23,0,0,3,1,2,2,2,42,4,3,24,0,0,3,1,2,2,2,42,5,4,25,0,0,3,1,6,6,6,42,6,5,26,0,0,3,1,3,3,3,42,7,6,27,0,0,3,1,2,2,2,42,8,7,28,0,0,3,1,2,2,2,42,9,8,29,0,0,3,1,4,4,4,42,10,9,30,0,0,3,1,2,2,2,42,11,10,31,0,0,3,1,4,4,4,42,12,11,32,0,0,3,1,5,5,5,42,13,12,33,0,0,3,1,5,5,5,42,14,13,34,0,0,3,1,6,6,6,42,15,14,35,0,0,3,1,2,2,2,42,16,15,36,0,0,3,1,2,2,2,42,17,16,37,0,0,3,1,18,18,18,42,18,17,38,0,0,3,1,2,2,2,42,19,18,39,0,0,3,1,6,6,6,42,20,19,40,0,0,3,1,1,1,1,42,504,20,41,0,0,3,1,1,1,1,42,0,503,502,0,0,3,1,1,1,1,42,21,502,501,0,0,3,1,1,1,1,42,42,501,500,0,0,3,1,5,5,5,42,63,500,499,0,0,3,1,1,1,1,42,105,84,499,0,2,0,3,1,1,1,42,126,105,498,0,2,0,3,1,1,1,42,147,126,497,0,2,0,3,5,5,5,42,168,147,496,0,2,0,3,1,1,1,42,168,495,494,0,0,3,1,5,5,5,42,189,494,493,0,0,3,1,5,5,5,42,210,493,492,0,0,3,1,5,5,5,42,231,492,491,0,0,3,1,5,5,5,42,252,491,490,0,0,3,1,1,1,1,42,294,273,490,0,2,0,3,1,1,1,42,315,294,489,0,2,0,3,1,1,1,42,336,315,488,0,2,0,3,5,5,5,42,357,336,487,0,2,0,3,1,1,1,42,357,486,485,0,0,3,1,5,5,5,42,399,378,485,0,2,0,3,1,1,1,42,420,399,484,0,2,0,3,1,1,1,42,420,483,526,0,0,3,1,1,1,1,42,441,525,503,0,0,3,1,1,1,1],
    "vertices":[90.9091,-3.97376e-06,-90.9091,90.9091,-3.57639e-06,-81.8182,90.9091,-3.17901e-06,-72.7273,90.9091,-2.78163e-06,-63.6364,90.9091,-2.38426e-06,-54.5455,90.9091,-1.98688e-06,-45.4546,90.9091,-1.58951e-06,-36.3636,90.9091,-1.19213e-06,-27.2727,90.9091,-7.94753e-07,-18.1818,90.9091,-3.97376e-07,-9.09091,90.9091,-2.27973e-13,-5.21541e-06,90.9091,3.97376e-07,9.0909,90.9091,7.94752e-07,18.1818,90.9091,1.19213e-06,27.2727,90.9091,1.5895e-06,36.3636,90.9091,1.98688e-06,45.4545,90.9091,2.38426e-06,54.5454,90.9091,2.78163e-06,63.6364,90.9091,3.17901e-06,72.7273,90.9091,3.57639e-06,81.8182,90.9091,3.97376e-06,90.9091,81.8182,-3.97376e-06,-90.9091,81.8182,-3.57639e-06,-81.8182,81.8182,-3.17901e-06,-72.7273,81.8182,-2.78163e-06,-63.6364,81.8182,-2.38426e-06,-54.5455,81.8182,-1.98688e-06,-45.4546,81.8182,-1.58951e-06,-36.3636,81.8182,-1.19213e-06,-27.2727,81.8182,-7.94753e-07,-18.1818,81.8182,-3.97376e-07,-9.09091,81.8182,-2.27973e-13,-5.21541e-06,81.8182,3.97376e-07,9.0909,81.8182,7.94752e-07,18.1818,81.8182,1.19213e-06,27.2727,81.8182,1.5895e-06,36.3636,81.8182,1.98688e-06,45.4545,81.8182,2.38426e-06,54.5454,81.8182,2.78163e-06,63.6364,81.8182,3.17901e-06,72.7273,81.8182,3.57639e-06,81.8182,81.8182,3.97376e-06,90.9091,72.7273,-3.97376e-06,-90.9091,72.7273,-3.57639e-06,-81.8182,72.7273,-3.17901e-06,-72.7273,72.7273,-2.78163e-06,-63.6364,72.7273,-2.38426e-06,-54.5455,72.7273,-1.98688e-06,-45.4546,72.7273,-1.58951e-06,-36.3636,72.7273,-1.19213e-06,-27.2727,72.7273,-7.94753e-07,-18.1818,72.7273,-3.97376e-07,-9.09091,72.7273,-2.27973e-13,-5.21541e-06,72.7273,3.97376e-07,9.0909,72.7273,7.94752e-07,18.1818,72.7273,1.19213e-06,27.2727,72.7273,1.5895e-06,36.3636,72.7273,1.98688e-06,45.4545,72.7273,2.38426e-06,54.5454,72.7273,2.78163e-06,63.6364,72.7273,3.17901e-06,72.7273,72.7273,3.57639e-06,81.8182,72.7273,3.97376e-06,90.9091,63.6364,-3.97376e-06,-90.9091,63.6364,-3.57639e-06,-81.8182,63.6364,-3.17901e-06,-72.7273,63.6364,-2.78163e-06,-63.6364,63.6364,-2.38426e-06,-54.5455,63.6364,-1.98688e-06,-45.4546,63.6364,-1.58951e-06,-36.3636,63.6364,-1.19213e-06,-27.2727,63.6364,-7.94753e-07,-18.1818,63.6364,-3.97376e-07,-9.09091,63.6364,-2.27973e-13,-5.21541e-06,63.6364,3.97376e-07,9.0909,63.6364,7.94752e-07,18.1818,63.6364,1.19213e-06,27.2727,63.6364,1.5895e-06,36.3636,63.6364,1.98688e-06,45.4545,63.6364,2.38426e-06,54.5454,63.6364,2.78163e-06,63.6364,63.6364,3.17901e-06,72.7273,63.6364,3.57639e-06,81.8182,63.6364,3.97376e-06,90.9091,54.5454,-3.97376e-06,-90.9091,54.5455,-3.57639e-06,-81.8182,54.5455,-3.17901e-06,-72.7273,54.5455,-2.78163e-06,-63.6364,54.5455,-2.38426e-06,-54.5455,54.5455,-1.98688e-06,-45.4546,54.5455,-1.58951e-06,-36.3636,54.5455,-1.19213e-06,-27.2727,54.5455,-7.94753e-07,-18.1818,54.5455,-3.97376e-07,-9.09091,54.5455,-2.27973e-13,-5.21541e-06,54.5455,3.97376e-07,9.0909,54.5455,7.94752e-07,18.1818,54.5455,1.19213e-06,27.2727,54.5455,1.5895e-06,36.3636,54.5455,1.98688e-06,45.4545,54.5455,2.38426e-06,54.5454,54.5455,2.78163e-06,63.6364,54.5455,3.17901e-06,72.7273,54.5455,3.57639e-06,81.8182,54.5455,3.97376e-06,90.9091,45.4545,-3.97376e-06,-90.9091,45.4545,-3.57639e-06,-81.8182,45.4545,-3.17901e-06,-72.7273,45.4545,-2.78163e-06,-63.6364,45.4546,-2.38426e-06,-54.5455,45.4546,-1.98688e-06,-45.4546,45.4546,-1.58951e-06,-36.3636,45.4546,-1.19213e-06,-27.2727,45.4546,-7.94753e-07,-18.1818,45.4546,-3.97376e-07,-9.09091,45.4546,-2.27973e-13,-5.21541e-06,45.4546,3.97376e-07,9.0909,45.4546,7.94752e-07,18.1818,45.4546,1.19213e-06,27.2727,45.4546,1.5895e-06,36.3636,45.4546,1.98688e-06,45.4545,45.4546,2.38426e-06,54.5454,45.4546,2.78163e-06,63.6364,45.4546,3.17901e-06,72.7273,45.4546,3.57639e-06,81.8182,45.4546,3.97376e-06,90.9091,36.3636,-3.97376e-06,-90.9091,36.3636,-3.57639e-06,-81.8182,36.3636,-3.17901e-06,-72.7273,36.3636,-2.78163e-06,-63.6364,36.3636,-2.38426e-06,-54.5455,36.3636,-1.98688e-06,-45.4546,36.3636,-1.58951e-06,-36.3636,36.3636,-1.19213e-06,-27.2727,36.3636,-7.94753e-07,-18.1818,36.3636,-3.97376e-07,-9.09091,36.3636,-2.27973e-13,-5.21541e-06,36.3636,3.97376e-07,9.0909,36.3636,7.94752e-07,18.1818,36.3636,1.19213e-06,27.2727,36.3636,1.5895e-06,36.3636,36.3636,1.98688e-06,45.4545,36.3636,2.38426e-06,54.5454,36.3636,2.78163e-06,63.6364,36.3636,3.17901e-06,72.7273,36.3636,3.57639e-06,81.8182,36.3636,3.97376e-06,90.9091,27.2727,-3.97376e-06,-90.9091,27.2727,-3.57639e-06,-81.8182,27.2727,-3.17901e-06,-72.7273,27.2727,-2.78163e-06,-63.6364,27.2727,-2.38426e-06,-54.5455,27.2727,-1.98688e-06,-45.4546,27.2727,-1.58951e-06,-36.3636,27.2727,-1.19213e-06,-27.2727,27.2727,-7.94753e-07,-18.1818,27.2727,-3.97376e-07,-9.09091,27.2727,-2.27973e-13,-5.21541e-06,27.2727,3.97376e-07,9.0909,27.2727,7.94752e-07,18.1818,27.2727,1.19213e-06,27.2727,27.2727,1.5895e-06,36.3636,27.2727,1.98688e-06,45.4545,27.2727,2.38426e-06,54.5454,27.2727,2.78163e-06,63.6364,27.2727,3.17901e-06,72.7273,27.2727,3.57639e-06,81.8182,27.2727,3.97376e-06,90.9091,18.1818,-3.97376e-06,-90.9091,18.1818,-3.57639e-06,-81.8182,18.1818,-3.17901e-06,-72.7273,18.1818,-2.78163e-06,-63.6364,18.1818,-2.38426e-06,-54.5455,18.1818,-1.98688e-06,-45.4546,18.1818,-1.58951e-06,-36.3636,18.1818,-1.19213e-06,-27.2727,18.1818,-7.94753e-07,-18.1818,18.1818,-3.97376e-07,-9.09091,18.1818,-2.27973e-13,-5.21541e-06,18.1818,3.97376e-07,9.0909,18.1818,7.94752e-07,18.1818,18.1818,1.19213e-06,27.2727,18.1818,1.5895e-06,36.3636,18.1818,1.98688e-06,45.4545,18.1818,2.38426e-06,54.5454,18.1818,2.78163e-06,63.6364,18.1818,3.17901e-06,72.7273,18.1818,3.57639e-06,81.8182,18.1818,3.97376e-06,90.9091,9.0909,-3.97376e-06,-90.9091,9.0909,-3.57639e-06,-81.8182,9.09091,-3.17901e-06,-72.7273,9.09091,-2.78163e-06,-63.6364,9.09091,-2.38426e-06,-54.5455,9.09091,-1.98688e-06,-45.4546,9.09091,-1.58951e-06,-36.3636,9.09091,-1.19213e-06,-27.2727,9.09091,-7.94753e-07,-18.1818,9.09091,-3.97376e-07,-9.09091,9.09091,-2.27973e-13,-5.21541e-06,9.09091,3.97376e-07,9.0909,9.09091,7.94752e-07,18.1818,9.09091,1.19213e-06,27.2727,9.09091,1.5895e-06,36.3636,9.09091,1.98688e-06,45.4545,9.09091,2.38426e-06,54.5454,9.09091,2.78163e-06,63.6364,9.09091,3.17901e-06,72.7273,9.09091,3.57639e-06,81.8182,9.09091,3.97376e-06,90.9091,-4.74128e-06,-3.97376e-06,-90.9091,-4.26715e-06,-3.57639e-06,-81.8182,-3.79302e-06,-3.17901e-06,-72.7273,-3.3189e-06,-2.78163e-06,-63.6364,-2.84477e-06,-2.38426e-06,-54.5455,-2.37064e-06,-1.98688e-06,-45.4546,-1.89651e-06,-1.58951e-06,-36.3636,-1.42238e-06,-1.19213e-06,-27.2727,-9.48256e-07,-7.94753e-07,-18.1818,-4.74128e-07,-3.97376e-07,-9.09091,8.88178e-14,-2.27973e-13,-5.21541e-06,4.74128e-07,3.97376e-07,9.0909,9.48256e-07,7.94752e-07,18.1818,1.42238e-06,1.19213e-06,27.2727,1.89651e-06,1.5895e-06,36.3636,2.37064e-06,1.98688e-06,45.4545,2.84477e-06,2.38426e-06,54.5454,3.3189e-06,2.78163e-06,63.6364,3.79302e-06,3.17901e-06,72.7273,4.26715e-06,3.57639e-06,81.8182,4.74128e-06,3.97376e-06,90.9091,-9.09091,-3.97376e-06,-90.9091,-9.09091,-3.57639e-06,-81.8182,-9.09091,-3.17901e-06,-72.7273,-9.09091,-2.78163e-06,-63.6364,-9.09091,-2.38426e-06,-54.5455,-9.09091,-1.98688e-06,-45.4546,-9.09091,-1.58951e-06,-36.3636,-9.09091,-1.19213e-06,-27.2727,-9.09091,-7.94753e-07,-18.1818,-9.09091,-3.97376e-07,-9.09091,-9.09091,-2.27973e-13,-5.21541e-06,-9.09091,3.97376e-07,9.0909,-9.09091,7.94752e-07,18.1818,-9.09091,1.19213e-06,27.2727,-9.09091,1.5895e-06,36.3636,-9.09091,1.98688e-06,45.4545,-9.09091,2.38426e-06,54.5454,-9.09091,2.78163e-06,63.6364,-9.09091,3.17901e-06,72.7273,-9.09091,3.57639e-06,81.8182,-9.0909,3.97376e-06,90.9091,-18.1818,-3.97376e-06,-90.9091,-18.1818,-3.57639e-06,-81.8182,-18.1818,-3.17901e-06,-72.7273,-18.1818,-2.78163e-06,-63.6364,-18.1818,-2.38426e-06,-54.5455,-18.1818,-1.98688e-06,-45.4546,-18.1818,-1.58951e-06,-36.3636,-18.1818,-1.19213e-06,-27.2727,-18.1818,-7.94753e-07,-18.1818,-18.1818,-3.97376e-07,-9.09091,-18.1818,-2.27973e-13,-5.21541e-06,-18.1818,3.97376e-07,9.0909,-18.1818,7.94752e-07,18.1818,-18.1818,1.19213e-06,27.2727,-18.1818,1.5895e-06,36.3636,-18.1818,1.98688e-06,45.4545,-18.1818,2.38426e-06,54.5454,-18.1818,2.78163e-06,63.6364,-18.1818,3.17901e-06,72.7273,-18.1818,3.57639e-06,81.8182,-18.1818,3.97376e-06,90.9091,-27.2727,-3.97376e-06,-90.9091,-27.2727,-3.57639e-06,-81.8182,-27.2727,-3.17901e-06,-72.7273,-27.2727,-2.78163e-06,-63.6364,-27.2727,-2.38426e-06,-54.5455,-27.2727,-1.98688e-06,-45.4546,-27.2727,-1.58951e-06,-36.3636,-27.2727,-1.19213e-06,-27.2727,-27.2727,-7.94753e-07,-18.1818,-27.2727,-3.97376e-07,-9.09091,-27.2727,-2.27973e-13,-5.21541e-06,-27.2727,3.97376e-07,9.0909,-27.2727,7.94752e-07,18.1818,-27.2727,1.19213e-06,27.2727,-27.2727,1.5895e-06,36.3636,-27.2727,1.98688e-06,45.4545,-27.2727,2.38426e-06,54.5454,-27.2727,2.78163e-06,63.6364,-27.2727,3.17901e-06,72.7273,-27.2727,3.57639e-06,81.8182,-27.2727,3.97376e-06,90.9091,-36.3636,-3.97376e-06,-90.9091,-36.3636,-3.57639e-06,-81.8182,-36.3636,-3.17901e-06,-72.7273,-36.3636,-2.78163e-06,-63.6364,-36.3636,-2.38426e-06,-54.5455,-36.3636,-1.98688e-06,-45.4546,-36.3636,-1.58951e-06,-36.3636,-36.3636,-1.19213e-06,-27.2727,-36.3636,-7.94753e-07,-18.1818,-36.3636,-3.97376e-07,-9.09091,-36.3636,-2.27973e-13,-5.21541e-06,-36.3636,3.97376e-07,9.0909,-36.3636,7.94752e-07,18.1818,-36.3636,1.19213e-06,27.2727,-36.3636,1.5895e-06,36.3636,-36.3636,1.98688e-06,45.4545,-36.3636,2.38426e-06,54.5454,-36.3636,2.78163e-06,63.6364,-36.3636,3.17901e-06,72.7273,-36.3636,3.57639e-06,81.8182,-36.3636,3.97376e-06,90.9091,-45.4546,-3.97376e-06,-90.9091,-45.4545,-3.57639e-06,-81.8182,-45.4545,-3.17901e-06,-72.7273,-45.4545,-2.78163e-06,-63.6364,-45.4545,-2.38426e-06,-54.5455,-45.4545,-1.98688e-06,-45.4546,-45.4545,-1.58951e-06,-36.3636,-45.4545,-1.19213e-06,-27.2727,-45.4545,-7.94753e-07,-18.1818,-45.4545,-3.97376e-07,-9.09091,-45.4545,-2.27973e-13,-5.21541e-06,-45.4545,3.97376e-07,9.0909,-45.4545,7.94752e-07,18.1818,-45.4545,1.19213e-06,27.2727,-45.4545,1.5895e-06,36.3636,-45.4545,1.98688e-06,45.4545,-45.4545,2.38426e-06,54.5454,-45.4545,2.78163e-06,63.6364,-45.4545,3.17901e-06,72.7273,-45.4545,3.57639e-06,81.8182,-45.4545,3.97376e-06,90.9091,-54.5454,-3.97376e-06,-90.9091,-54.5454,-3.57639e-06,-81.8182,-54.5454,-3.17901e-06,-72.7273,-54.5454,-2.78163e-06,-63.6364,-54.5454,-2.38426e-06,-54.5455,-54.5454,-1.98688e-06,-45.4546,-54.5454,-1.58951e-06,-36.3636,-54.5454,-1.19213e-06,-27.2727,-54.5454,-7.94753e-07,-18.1818,-54.5454,-3.97376e-07,-9.09091,-54.5454,-2.27973e-13,-5.21541e-06,-54.5454,3.97376e-07,9.0909,-54.5454,7.94752e-07,18.1818,-54.5454,1.19213e-06,27.2727,-54.5454,1.5895e-06,36.3636,-54.5454,1.98688e-06,45.4545,-54.5454,2.38426e-06,54.5454,-54.5454,2.78163e-06,63.6364,-54.5454,3.17901e-06,72.7273,-54.5454,3.57639e-06,81.8182,-54.5454,3.97376e-06,90.9091,-63.6364,-3.97376e-06,-90.9091,-63.6364,-3.57639e-06,-81.8182,-63.6364,-3.17901e-06,-72.7273,-63.6364,-2.78163e-06,-63.6364,-63.6364,-2.38426e-06,-54.5455,-63.6364,-1.98688e-06,-45.4546,-63.6364,-1.58951e-06,-36.3636,-63.6364,-1.19213e-06,-27.2727,-63.6364,-7.94753e-07,-18.1818,-63.6364,-3.97376e-07,-9.09091,-63.6364,-2.27973e-13,-5.21541e-06,-63.6364,3.97376e-07,9.0909,-63.6364,7.94752e-07,18.1818,-63.6364,1.19213e-06,27.2727,-63.6364,1.5895e-06,36.3636,-63.6364,1.98688e-06,45.4545,-63.6364,2.38426e-06,54.5454,-63.6364,2.78163e-06,63.6364,-63.6364,3.17901e-06,72.7273,-63.6364,3.57639e-06,81.8182,-63.6364,3.97376e-06,90.9091,-72.7273,-3.97376e-06,-90.9091,-72.7273,-3.57639e-06,-81.8182,-72.7273,-3.17901e-06,-72.7273,-72.7273,-2.78163e-06,-63.6364,-72.7273,-2.38426e-06,-54.5455,-72.7273,-1.98688e-06,-45.4546,-72.7273,-1.58951e-06,-36.3636,-72.7273,-1.19213e-06,-27.2727,-72.7273,-7.94753e-07,-18.1818,-72.7273,-3.97376e-07,-9.09091,-72.7273,-2.27973e-13,-5.21541e-06,-72.7273,3.97376e-07,9.0909,-72.7273,7.94752e-07,18.1818,-72.7273,1.19213e-06,27.2727,-72.7273,1.5895e-06,36.3636,-72.7273,1.98688e-06,45.4545,-72.7273,2.38426e-06,54.5454,-72.7273,2.78163e-06,63.6364,-72.7273,3.17901e-06,72.7273,-72.7273,3.57639e-06,81.8182,-72.7273,3.97376e-06,90.9091,-81.8182,-3.97376e-06,-90.9091,-81.8182,-3.57639e-06,-81.8182,-81.8182,-3.17901e-06,-72.7273,-81.8182,-2.78163e-06,-63.6364,-81.8182,-2.38426e-06,-54.5455,-81.8182,-1.98688e-06,-45.4546,-81.8182,-1.58951e-06,-36.3636,-81.8182,-1.19213e-06,-27.2727,-81.8182,-7.94753e-07,-18.1818,-81.8182,-3.97376e-07,-9.09091,-81.8182,-2.27973e-13,-5.21541e-06,-81.8182,3.97376e-07,9.0909,-81.8182,7.94752e-07,18.1818,-81.8182,1.19213e-06,27.2727,-81.8182,1.5895e-06,36.3636,-81.8182,1.98688e-06,45.4545,-81.8182,2.38426e-06,54.5454,-81.8182,2.78163e-06,63.6364,-81.8182,3.17901e-06,72.7273,-81.8182,3.57639e-06,81.8182,-81.8182,3.97376e-06,90.9091,-90.9091,-3.97376e-06,-90.9091,-90.9091,-3.57639e-06,-81.8182,-90.9091,-3.17901e-06,-72.7273,-90.9091,-2.78163e-06,-63.6364,-90.9091,-2.38426e-06,-54.5455,-90.9091,-1.98688e-06,-45.4546,-90.9091,-1.58951e-06,-36.3636,-90.9091,-1.19213e-06,-27.2727,-90.9091,-7.94753e-07,-18.1818,-90.9091,-3.97376e-07,-9.09091,-90.9091,-2.27973e-13,-5.21541e-06,-90.9091,3.97376e-07,9.0909,-90.9091,7.94752e-07,18.1818,-90.9091,1.19213e-06,27.2727,-90.9091,1.5895e-06,36.3636,-90.9091,1.98688e-06,45.4545,-90.9091,2.38426e-06,54.5454,-90.9091,2.78163e-06,63.6364,-90.9091,3.17901e-06,72.7273,-90.9091,3.57639e-06,81.8182,-90.9091,3.97376e-06,90.9091,100,-3.97376e-06,-90.9091,100,-3.57639e-06,-81.8182,100,-3.17901e-06,-72.7273,100,-2.78163e-06,-63.6364,100,-2.38426e-06,-54.5455,100,-1.98688e-06,-45.4546,100,-1.58951e-06,-36.3636,100,-1.19213e-06,-27.2727,100,-7.94753e-07,-18.1818,100,-3.97376e-07,-9.09091,100,-2.27973e-13,-5.21541e-06,100,3.97376e-07,9.0909,100,7.94752e-07,18.1818,100,1.19213e-06,27.2727,100,1.5895e-06,36.3636,100,1.98688e-06,45.4545,100,2.38426e-06,54.5454,100,2.78163e-06,63.6364,100,3.17901e-06,72.7273,100,3.57639e-06,81.8182,100,3.97376e-06,90.9091,-100,3.97376e-06,90.9091,-100,3.57639e-06,81.8182,-100,3.17901e-06,72.7273,-100,2.78163e-06,63.6364,-100,2.38426e-06,54.5455,-100,1.98688e-06,45.4546,-100,1.58951e-06,36.3636,-100,1.19213e-06,27.2727,-100,7.94753e-07,18.1818,-100,3.97376e-07,9.09091,-100,2.27973e-13,5.21541e-06,-100,-3.97376e-07,-9.0909,-100,-7.94752e-07,-18.1818,-100,-1.19213e-06,-27.2727,-100,-1.5895e-06,-36.3636,-100,-1.98688e-06,-45.4545,-100,-2.38426e-06,-54.5454,-100,-2.78163e-06,-63.6364,-100,-3.17901e-06,-72.7273,-100,-3.57639e-06,-81.8182,-100,-3.97376e-06,-90.9091,-90.9091,-4.37114e-06,-100,-81.8182,-4.37114e-06,-100,-72.7273,-4.37114e-06,-100,-63.6364,-4.37114e-06,-100,-54.5455,-4.37114e-06,-100,-45.4546,-4.37114e-06,-100,-36.3636,-4.37114e-06,-100,-27.2727,-4.37114e-06,-100,-18.1818,-4.37114e-06,-100,-9.09091,-4.37114e-06,-100,-5.21541e-06,-4.37114e-06,-100,9.0909,-4.37114e-06,-100,18.1818,-4.37114e-06,-100,27.2727,-4.37114e-06,-100,36.3636,-4.37114e-06,-100,45.4545,-4.37114e-06,-100,54.5454,-4.37114e-06,-100,63.6364,-4.37114e-06,-100,72.7273,-4.37114e-06,-100,81.8182,-4.37114e-06,-100,90.9091,-4.37114e-06,-100,90.9091,4.37114e-06,100,81.8182,4.37114e-06,100,72.7273,4.37114e-06,100,63.6364,4.37114e-06,100,54.5455,4.37114e-06,100,45.4546,4.37114e-06,100,36.3636,4.37114e-06,100,27.2727,4.37114e-06,100,18.1818,4.37114e-06,100,9.09091,4.37114e-06,100,5.21541e-06,4.37114e-06,100,-9.0909,4.37114e-06,100,-18.1818,4.37114e-06,100,-27.2727,4.37114e-06,100,-36.3636,4.37114e-06,100,-45.4545,4.37114e-06,100,-54.5454,4.37114e-06,100,-63.6364,4.37114e-06,100,-72.7273,4.37114e-06,100,-81.8182,4.37114e-06,100,-90.9091,4.37114e-06,100,100,-4.37114e-06,-100,-100,-4.37114e-06,-100,100,4.37114e-06,100,-100,4.37114e-06,100],
    "normals":[0,1,-4.37114e-08,0,1,-4.37114e-08,0,1,-4.37114e-08,0,1,-4.37114e-08,0,1,-4.37114e-08,0,1,-4.37114e-08,0,1,-4.37114e-08,0,1,-4.37114e-08,1.37561e-14,1,-4.37114e-08,1.37561e-14,1,-4.37114e-08,1.92585e-14,1,-4.37114e-08,2.75122e-15,1,-4.37114e-08,-8.25366e-15,1,-4.37114e-08,-2.75122e-15,1,-4.37114e-08,5.50244e-15,1,-4.37114e-08,-8.25366e-15,1,-4.37114e-08,1.92585e-14,1,-4.37114e-08,1.37561e-14,1,-4.37114e-08,0,1,-4.37114e-08,0,1,-4.37114e-08,0,1,-4.37114e-08,1.33381e-14,1,-4.37114e-08,1.33382e-14,1,-4.37114e-08,2.00072e-14,1,-4.37114e-08,8.32601e-16,1,-4.37114e-08,-8.33841e-15,1,-4.37114e-08,-2.08564e-15,1,-4.37114e-08,-4.18365e-16,1,-4.37114e-08,-5.24754e-21,1,-4.37114e-08,-4.18376e-16,1,-4.37114e-08,-2.08564e-15,1,-4.37114e-08,-8.3384e-15,1,-4.37114e-08,2.00072e-14,1,-4.37114e-08,1.33381e-14,1,-4.37114e-08],
    "materials":[{
        "opacity":1,
        "DbgName":"plane",
        "shading":"phong",
        "doubleSided":false,
        "colorDiffuse":[0.64,0.64,0.64],
        "DbgIndex":0,
        "specularCoef":50,
        "colorEmissive":[0,0,0],
        "wireframe":false,
        "depthWrite":true,
        "colorSpecular":[0.5,0.5,0.5],
        "mapDiffuseRepeat":[1,1],
        "vertexColors":false,
        "mapDiffuseWrap":["repeat","repeat"],
        "mapDiffuse":"bkg.png",
        "DbgColor":15658734,
        "mapDiffuseAnisotropy":1,
        "visible":true,
        "blending":1,
        "depthTest":true,
        "transparent":false
    }],
    "uvs":[[1,0,0,1,0,0,1,1]]
}